Convex Hull Theorem Illustration – Estimating Set Size by Cascading Exclusion
…
Code

#ggsave("main_theorem_convergence.png", fig4, 
#        width = 6, height = 4, dpi = 300, bg = "white")

# Print summary statistics
cat("\n=== MAIN THEOREM VERIFICATION ===\n")

=== MAIN THEOREM VERIFICATION ===

Code

print(theorem_summary)

# A tibble: 10,000 × 10
   distribution_clean         d     n mean_squared_diff theoretical_bound
   <chr>                  <dbl> <dbl>             <dbl>             <dbl>
 1 Corr. Gaussian (r=0.8)     2    50           0.00255               0.5
 2 Corr. Gaussian (r=0.8)     2    50           0.00255               0.5
 3 Corr. Gaussian (r=0.8)     2    50           0.00255               0.5
 4 Corr. Gaussian (r=0.8)     2    50           0.00255               0.5
 5 Corr. Gaussian (r=0.8)     2    50           0.00255               0.5
 6 Corr. Gaussian (r=0.8)     2    50           0.00255               0.5
 7 Corr. Gaussian (r=0.8)     2    50           0.00255               0.5
 8 Corr. Gaussian (r=0.8)     2    50           0.00255               0.5
 9 Corr. Gaussian (r=0.8)     2    50           0.00255               0.5
10 Corr. Gaussian (r=0.8)     2    50           0.00255               0.5
# ℹ 9,990 more rows
# ℹ 5 more variables: mean_D_diff <dbl>, theoretical_D_bound <dbl>,
#   mean_V_n_over_n <dbl>, mean_D_n_minus_1 <dbl>, sd_squared_diff <dbl>
…
